module dbsurgeon

go 1.20

require (
	github.com/aptly-dev/aptly v1.5.0
	github.com/syndtr/goleveldb v1.0.1-0.20190923125748-758128399b1d
	github.com/ugorji/go/codec v1.2.7
)

require (
	github.com/AlekSi/pointer v1.0.0 // indirect
	github.com/DisposaBoy/JsonConfigReader v0.0.0-20130112093355-33a99fdf1d5e // indirect
	github.com/awalterschulze/gographviz v0.0.0-20160912181450-761fd5fbb34e // indirect
	github.com/cavaliergopher/grab/v3 v3.0.1 // indirect
	github.com/golang/snappy v0.0.1 // indirect
	github.com/h2non/filetype v1.0.5 // indirect
	github.com/jlaffaye/ftp v0.0.0-20180404123514-2403248fa8cc // indirect
	github.com/kjk/lzma v0.0.0-20161016003348-3fd93898850d // indirect
	github.com/klauspost/compress v1.13.6 // indirect
	github.com/klauspost/pgzip v1.2.5 // indirect
	github.com/mkrautz/goar v0.0.0-20150919110319-282caa8bd9da // indirect
	github.com/mxk/go-flowrate v0.0.0-20140419014527-cca7078d478f // indirect
	github.com/pborman/uuid v0.0.0-20180122190007-c65b2f87fee3 // indirect
	github.com/pkg/errors v0.9.1 // indirect
	github.com/smira/go-ftp-protocol v0.0.0-20140829150050-066b75c2b70d // indirect
	github.com/smira/go-xz v0.0.0-20150414201226-0c531f070014 // indirect
	golang.org/x/crypto v0.0.0-20220331220935-ae2d96664a29 // indirect
	golang.org/x/sys v0.0.0-20220405052023-b1e9470b6e64 // indirect
	golang.org/x/term v0.0.0-20201126162022-7de9c90e9dd1 // indirect
	golang.org/x/time v0.0.0-20211116232009-f0f3c7e86c11 // indirect
	gopkg.in/h2non/filetype.v1 v1.0.1 // indirect
)
